{
    "interactionModel": {
        "languageModel": {
            "invocationName": "acela",
            "intents": [
                {
                    "name": "AMAZON.CancelIntent",
                    "samples": []
                },
                {
                    "name": "AMAZON.HelpIntent",
                    "samples": []
                },
                {
                    "name": "AMAZON.StopIntent",
                    "samples": [
                        "stop"
                    ]
                },
                {
                    "name": "ThrottleIntent",
                    "slots": [],
                    "samples": [
                        "throttle"
                    ]
                },
                {
                    "name": "LoadIntent",
                    "slots": [],
                    "samples": [
                        "load"
                    ]
                },
                {
                    "name": "TorqueIntent",
                    "slots": [],
                    "samples": [
                        "torque"
                    ]
                },
                {
                    "name": "RPMIntent",
                    "slots": [],
                    "samples": [
                        "rpm"
                    ]
                },
                {
                    "name": "CoolantIntent",
                    "slots": [],
                    "samples": [
                        "coolant temperature"
                    ]
                },
                {
                    "name": "PressureIntent",
                    "slots": [],
                    "samples": [
                        "intake pressure"
                    ]
                },
                {
                    "name": "GetRestaurants",
                    "slots": [],
                    "samples": [
                        "restaurants"
                    ]
                },
                {
                    "name": "GetServiceCentres",
                    "slots": [],
                    "samples": [
                        "service"
                    ]
                },
                {
                    "name": "GetHospitals",
                    "slots": [],
                    "samples": [
                        "medical",
                        "emergency",
                        "hospitals"
                    ]
                }
            ],
            "types": []
        }
    }
}